Hypothesis Tests
…
.tiny[

```r
# we have 100 variables which are standard normal distributed
# let's take the one with the highest average
random_normal %>% 
   pivot_longer(cols = everything(), names_to = "variable", values_to = "value") %>%
   group_by(variable) %>% 
   summarize(mean_val = mean(value)) %>% 
   arrange(desc(mean_val))
```

```
## # A tibble: 100 x 2
##    variable mean_val
##    <chr>       <dbl>
##  1 ...78       0.287
##  2 ...28       0.244
##  3 ...35       0.233
##  4 ...53       0.228
##  5 ...60       0.224
##  6 ...100      0.211
##  7 ...97       0.191
##  8 ...77       0.173
##  9 ...99       0.166
## 10 ...67       0.165
## # ... with 90 more rows
```
…
